FitBit Case Study
…
tibble(dailyActivity_merged)

## # A tibble: 940 × 15
##        Id ActivityDate TotalSteps TotalDistance TrackerDistance LoggedActivitie…
##     <dbl> <chr>             <int>         <dbl>           <dbl>            <dbl>
##  1 1.50e9 4/12/2016         13162          8.5             8.5                 0
##  2 1.50e9 4/13/2016         10735          6.97            6.97                0
##  3 1.50e9 4/14/2016         10460          6.74            6.74                0
##  4 1.50e9 4/15/2016          9762          6.28            6.28                0
##  5 1.50e9 4/16/2016         12669          8.16            8.16                0
##  6 1.50e9 4/17/2016          9705          6.48            6.48                0
##  7 1.50e9 4/18/2016         13019          8.59            8.59                0
##  8 1.50e9 4/19/2016         15506          9.88            9.88                0
##  9 1.50e9 4/20/2016         10544          6.68            6.68                0
## 10 1.50e9 4/21/2016          9819          6.34            6.34                0
## # … with 930 more rows, and 9 more variables: VeryActiveDistance <dbl>,
## #   ModeratelyActiveDistance <dbl>, LightActiveDistance <dbl>,
## #   SedentaryActiveDistance <dbl>, VeryActiveMinutes <int>,
## #   FairlyActiveMinutes <int>, LightlyActiveMinutes <int>,
## #   SedentaryMinutes <int>, Calories <int>
…
